<DrawCuboid x1="-25" y1="3" z1="0" x2="25" y2="0" z2="35" type="grass"/>
<DrawLine x1="-9" y1="3" z1="12" x2="-9" y2="3" z2="20" type="lava"/>
<DrawLine x1="-9" y1="3" z1="12" x2="-9" y2="3" z2="20" type="lava"/>
<DrawLine x1="-10" y1="3" z1="13" x2="-10" y2="3" z2="19" type="lava"/>
<DrawLine x1="-8" y1="3" z1="13" x2="-8" y2="3" z2="19" type="lava"/>
<DrawLine x1="-11" y1="3" z1="14" x2="-11" y2="3" z2="18" type="lava"/>
<DrawLine x1="-7" y1="3" z1="14" x2="-7" y2="3" z2="18" type="lava"/>
<DrawLine x1="-12" y1="3" z1="15" x2="-12" y2="3" z2="17" type="lava"/>
<DrawLine x1="-6" y1="3" z1="15" x2="-6" y2="3" z2="17" type="lava"/>
<DrawLine x1="-13" y1="3" z1="16" x2="-13" y2="3" z2="16" type="lava"/>
<DrawLine x1="-5" y1="3" z1="16" x2="-5" y2="3" z2="16" type="lava"/>
<DrawLine x1="9" y1="3" z1="9" x2="9" y2="3" z2="23" type="lava"/>
<DrawLine x1="9" y1="3" z1="9" x2="9" y2="3" z2="23" type="lava"/>
<DrawLine x1="8" y1="3" z1="10" x2="8" y2="3" z2="22" type="lava"/>
<DrawLine x1="10" y1="3" z1="10" x2="10" y2="3" z2="22" type="lava"/>
<DrawLine x1="7" y1="3" z1="11" x2="7" y2="3" z2="21" type="lava"/>
<DrawLine x1="11" y1="3" z1="11" x2="11" y2="3" z2="21" type="lava"/>
<DrawLine x1="6" y1="3" z1="12" x2="6" y2="3" z2="20" type="lava"/>
<DrawLine x1="12" y1="3" z1="12" x2="12" y2="3" z2="20" type="lava"/>
<DrawLine x1="5" y1="3" z1="13" x2="5" y2="3" z2="19" type="lava"/>
<DrawLine x1="13" y1="3" z1="13" x2="13" y2="3" z2="19" type="lava"/>
<DrawLine x1="4" y1="3" z1="14" x2="4" y2="3" z2="18" type="lava"/>
<DrawLine x1="14" y1="3" z1="14" x2="14" y2="3" z2="18" type="lava"/>
<DrawLine x1="3" y1="3" z1="15" x2="3" y2="3" z2="17" type="lava"/>
<DrawLine x1="15" y1="3" z1="15" x2="15" y2="3" z2="17" type="lava"/>
<DrawLine x1="2" y1="3" z1="16" x2="2" y2="3" z2="16" type="lava"/>
<DrawLine x1="16" y1="3" z1="16" x2="16" y2="3" z2="16" type="lava"/>
